(footprint "CON18_1X12_P0_HIR"
	(version 20240108)
	(generator "pcbnew")
	(generator_version "8.0")
	(layer "F.Cu")
	(tags "CX90B-16P ")
	(property "Reference" "REF**"
		(at 0 -3.4544 0)
		(unlocked yes)
		(layer "F.SilkS")
		(uuid "c499b503-f285-44fc-81ed-aa1b3fd20426")
		(effects
			(font
				(size 1 1)
				(thickness 0.15)
			)
		)
	)
	(property "Value" "CON18_1X12_P0_HIR"
		(at 0 -3.4544 0)
		(unlocked yes)
		(layer "F.Fab")
		(uuid "93729c69-f143-470f-86dd-03cfccb75f64")
		(effects
			(font
				(size 1 1)
				(thickness 0.15)
			)
		)
	)
	(property "Footprint" ""
		(at 0 0 0)
		(unlocked yes)
		(layer "F.Fab")
		(hide yes)
		(uuid "974c8e9a-a0ed-4fd8-9aa0-31a399e72b38")
		(effects
			(font
				(size 1.27 1.27)
			)
		)
	)
	(property "Datasheet" ""
		(at 0 0 0)
		(unlocked yes)
		(layer "F.Fab")
		(hide yes)
		(uuid "16ec777f-2332-429e-b190-708d07f6cfa1")
		(effects
			(font
				(size 1.27 1.27)
			)
		)
	)
	(property "Description" ""
		(at 0 0 0)
		(unlocked yes)
		(layer "F.Fab")
		(hide yes)
		(uuid "182755d1-3105-4f46-9ba6-54ded52d1254")
		(effects
			(font
				(size 1.27 1.27)
			)
		)
	)
	(attr smd)
	(fp_circle
		(center -6.4262 -3.4544)
		(end -6.0452 -3.4544)
		(stroke
			(width 0.508)
			(type solid)
		)
		(fill none)
		(layer "B.SilkS")
		(uuid "77af2633-9e6d-45a2-8121-5e59555aa7fb")
	)
	(fp_line
		(start -4.6482 2.429439)
		(end -4.6482 3.5814)
		(stroke
			(width 0.1524)
			(type solid)
		)
		(layer "F.SilkS")
		(uuid "393dd87c-5190-41ba-88c8-fc12a137db55")
	)
	(fp_line
		(start -4.6482 3.5814)
		(end 4.6482 3.5814)
		(stroke
			(width 0.1524)
			(type solid)
		)
		(layer "F.SilkS")
		(uuid "b88d655b-44ee-4750-affe-5092ac839d52")
	)
	(fp_line
		(start 4.6482 3.5814)
		(end 4.6482 2.42944)
		(stroke
			(width 0.1524)
			(type solid)
		)
		(layer "F.SilkS")
		(uuid "2796980c-0eb7-43da-acb1-328f222e305a")
	)
	(fp_circle
		(center -6.4262 -3.4544)
		(end -6.0452 -3.4544)
		(stroke
			(width 0.508)
			(type solid)
		)
		(fill none)
		(layer "F.SilkS")
		(uuid "da4ae81a-36ec-4330-9c03-748ae9ca38e1")
	)
	(fp_line
		(start -4.620001 -1.802994)
		(end -4.620001 -3.199994)
		(stroke
			(width 0.6096)
			(type solid)
		)
		(layer "Edge.Cuts")
		(uuid "1259ff3e-972d-4be8-8d94-1bf0ac92ba07")
	)
	(fp_line
		(start -4.319999 1.600507)
		(end -4.319999 0.508307)
		(stroke
			(width 0.6096)
			(type solid)
		)
		(layer "Edge.Cuts")
		(uuid "86a680c9-1a61-4377-9f58-e503c6667fdc")
	)
	(fp_line
		(start 4.320001 1.600507)
		(end 4.320001 0.508307)
		(stroke
			(width 0.6096)
			(type solid)
		)
		(layer "Edge.Cuts")
		(uuid "adb48d3e-4faf-4897-9490-46f4f94a74a0")
	)
	(fp_line
		(start 4.620001 -1.802994)
		(end 4.620001 -3.199994)
		(stroke
			(width 0.6096)
			(type solid)
		)
		(layer "Edge.Cuts")
		(uuid "b9d4825a-77f0-4497-84b8-925c47ee23fc")
	)
	(fp_line
		(start -5.432801 -4.012794)
		(end -5.432801 -0.990194)
		(stroke
			(width 0.1524)
			(type solid)
		)
		(layer "F.CrtYd")
		(uuid "71d60947-7a92-4812-93d6-dfbc8be40a79")
	)
	(fp_line
		(start -5.432801 -0.990194)
		(end -4.7752 -0.990194)
		(stroke
			(width 0.1524)
			(type solid)
		)
		(layer "F.CrtYd")
		(uuid "5b5460d9-e9cb-4885-a1a6-e56f1fe30727")
	)
	(fp_line
		(start -5.132799 -0.304493)
		(end -5.132799 2.413307)
		(stroke
			(width 0.1524)
			(type solid)
		)
		(layer "F.CrtYd")
		(uuid "2c7f0327-b29d-467c-91d6-abb4c6fb761a")
	)
	(fp_line
		(start -5.132799 2.413307)
		(end -4.7752 2.413307)
		(stroke
			(width 0.1524)
			(type solid)
		)
		(layer "F.CrtYd")
		(uuid "a3b6ae46-a5a9-4a06-b80e-62fc14b201bb")
	)
	(fp_line
		(start -4.7752 -0.990194)
		(end -4.7752 -0.304493)
		(stroke
			(width 0.1524)
			(type solid)
		)
		(layer "F.CrtYd")
		(uuid "d78ff95e-ff34-4499-a89b-d1d8d9361803")
	)
	(fp_line
		(start -4.7752 -0.304493)
		(end -5.132799 -0.304493)
		(stroke
			(width 0.1524)
			(type solid)
		)
		(layer "F.CrtYd")
		(uuid "9bd6465c-848b-4962-9c06-606de2d5aeed")
	)
	(fp_line
		(start -4.7752 2.413307)
		(end -4.7752 3.7084)
		(stroke
			(width 0.1524)
			(type solid)
		)
		(layer "F.CrtYd")
		(uuid "372e17a6-0e2f-40f2-b804-b7f850883025")
	)
	(fp_line
		(start -4.7752 3.7084)
		(end 4.7752 3.7084)
		(stroke
			(width 0.1524)
			(type solid)
		)
		(layer "F.CrtYd")
		(uuid "8dc8456d-0f8c-478b-946f-4ae5102dabae")
	)
	(fp_line
		(start -3.807201 -4.012794)
		(end -5.432801 -4.012794)
		(stroke
			(width 0.1524)
			(type solid)
		)
		(layer "F.CrtYd")
		(uuid "1dca5b7d-0cb0-4063-a027-17e24845ddc2")
	)
	(fp_line
		(start -3.807201 -3.7084)
		(end -3.807201 -4.012794)
		(stroke
			(width 0.1524)
			(type solid)
		)
		(layer "F.CrtYd")
		(uuid "b3c8fc57-7bb9-4d36-afd1-aeb566183655")
	)
	(fp_line
		(start 3.807201 -4.012794)
		(end 3.807201 -3.7084)
		(stroke
			(width 0.1524)
			(type solid)
		)
		(layer "F.CrtYd")
		(uuid "82366be4-3ce7-4013-9497-3d7dc0b70af3")
	)
	(fp_line
		(start 3.807201 -3.7084)
		(end -3.807201 -3.7084)
		(stroke
			(width 0.1524)
			(type solid)
		)
		(layer "F.CrtYd")
		(uuid "a157ec42-5fb1-480a-9864-21fc4eca51b3")
	)
	(fp_line
		(start 4.7752 -0.990194)
		(end 5.432801 -0.990194)
		(stroke
			(width 0.1524)
			(type solid)
		)
		(layer "F.CrtYd")
		(uuid "ddb2c739-2001-4876-be8c-f5f71b93c620")
	)
	(fp_line
		(start 4.7752 -0.304493)
		(end 4.7752 -0.990194)
		(stroke
			(width 0.1524)
			(type solid)
		)
		(layer "F.CrtYd")
		(uuid "fbeb8e39-962a-42d7-8d4b-b9b02b76bf95")
	)
	(fp_line
		(start 4.7752 2.413307)
		(end 5.132801 2.413307)
		(stroke
			(width 0.1524)
			(type solid)
		)
		(layer "F.CrtYd")
		(uuid "d97e75e0-4b09-4805-b52e-fb90da62cf4d")
	)
	(fp_line
		(start 4.7752 3.7084)
		(end 4.7752 2.413307)
		(stroke
			(width 0.1524)
			(type solid)
		)
		(layer "F.CrtYd")
		(uuid "7506b8c0-6f97-48ea-8b2c-f576c54a7b36")
	)
	(fp_line
		(start 5.132801 -0.304493)
		(end 4.7752 -0.304493)
		(stroke
			(width 0.1524)
			(type solid)
		)
		(layer "F.CrtYd")
		(uuid "8f4e0a46-15c7-400e-9f94-312cbb8aacaf")
	)
	(fp_line
		(start 5.132801 2.413307)
		(end 5.132801 -0.304493)
		(stroke
			(width 0.1524)
			(type solid)
		)
		(layer "F.CrtYd")
		(uuid "24937fe5-77fb-47a0-82d7-7b5026c256e4")
	)
	(fp_line
		(start 5.432801 -4.012794)
		(end 3.807201 -4.012794)
		(stroke
			(width 0.1524)
			(type solid)
		)
		(layer "F.CrtYd")
		(uuid "02e55eb8-cb62-4e6f-842d-a5830ae6d7a0")
	)
	(fp_line
		(start 5.432801 -0.990194)
		(end 5.432801 -4.012794)
		(stroke
			(width 0.1524)
			(type solid)
		)
		(layer "F.CrtYd")
		(uuid "afbd2611-d520-4b2f-9464-680a9b5c2e67")
	)
	(fp_line
		(start -4.5212 -3.4544)
		(end -4.5212 3.4544)
		(stroke
			(width 0.0254)
			(type solid)
		)
		(layer "F.Fab")
		(uuid "930c2b72-e92f-45d9-87ad-b6124766b7a9")
	)
	(fp_line
		(start -4.5212 3.4544)
		(end 4.5212 3.4544)
		(stroke
			(width 0.0254)
			(type solid)
		)
		(layer "F.Fab")
		(uuid "32690e17-f57d-436c-b402-e7a1a9d0a942")
	)
	(fp_line
		(start 4.5212 -3.4544)
		(end -4.5212 -3.4544)
		(stroke
			(width 0.0254)
			(type solid)
		)
		(layer "F.Fab")
		(uuid "53081440-4bcc-4630-88aa-df04e3f9e48d")
	)
	(fp_line
		(start 4.5212 3.4544)
		(end 4.5212 -3.4544)
		(stroke
			(width 0.0254)
			(type solid)
		)
		(layer "F.Fab")
		(uuid "4bc9195d-9820-4de6-b3c6-0595202afa56")
	)
	(fp_circle
		(center -3.556 -5.334)
		(end -3.175 -5.334)
		(stroke
			(width 0.508)
			(type solid)
		)
		(fill none)
		(layer "F.Fab")
		(uuid "18706118-db0b-4b2d-aafd-3125b3652b56")
	)
	(fp_text user "${REFERENCE}"
		(at 0 -3.4544 0)
		(unlocked yes)
		(layer "F.Fab")
		(uuid "a78c4965-decf-413d-ba3c-b6b830ddf6e5")
		(effects
			(font
				(size 1 1)
				(thickness 0.15)
			)
		)
	)
	(pad "" np_thru_hole circle
		(at -4.620001 -3.199994)
		(size 0.6096 0.6096)
		(drill 0.6096)
		(layers)
		(uuid "cbe348e9-90cf-4172-84e2-f87899a52377")
	)
	(pad "" np_thru_hole circle
		(at -4.620001 -1.802994)
		(size 0.6096 0.6096)
		(drill 0.6096)
		(layers)
		(uuid "5dc66905-d301-4cf6-91fd-fa33bc6b163d")
	)
	(pad "" np_thru_hole circle
		(at -4.319999 0.508307)
		(size 0.6096 0.6096)
		(drill 0.6096)
		(layers)
		(uuid "20541ee3-7d84-4138-a4ff-7ca7a078bbd9")
	)
	(pad "" np_thru_hole circle
		(at -4.319999 1.600507)
		(size 0.6096 0.6096)
		(drill 0.6096)
		(layers)
		(uuid "c09c3f19-0035-4735-9568-10e6d2f350d1")
	)
	(pad "" np_thru_hole circle
		(at 4.320001 0.508307)
		(size 0.6096 0.6096)
		(drill 0.6096)
		(layers)
		(uuid "76a456f1-0985-4d29-b227-87ebd8a180ae")
	)
	(pad "" np_thru_hole circle
		(at 4.320001 1.600507)
		(size 0.6096 0.6096)
		(drill 0.6096)
		(layers)
		(uuid "61609222-3181-4ea1-a588-df0e6d752fa6")
	)
	(pad "" np_thru_hole circle
		(at 4.620001 -3.199994)
		(size 0.6096 0.6096)
		(drill 0.6096)
		(layers)
		(uuid "6be848f1-ee43-47cd-a536-98851e958892")
	)
	(pad "" np_thru_hole circle
		(at 4.620001 -1.802994)
		(size 0.6096 0.6096)
		(drill 0.6096)
		(layers)
		(uuid "74d89ef1-cf91-4f5a-96f8-e9828c79582a")
	)
	(pad "1" smd rect
		(at -3.634999 -2.920594)
		(size 0.5588 0.8382)
		(layers "F.Cu" "F.Paste" "F.Mask")
		(uuid "f7527ca1-146e-471f-963c-9f02f29c4c83")
	)
	(pad "2" smd rect
		(at -3.025 -2.920594)
		(size 0.2032 0.8382)
		(layers "F.Cu" "F.Paste" "F.Mask")
		(uuid "b135324b-35d9-4d0d-a9d3-0f166cb643bf")
	)
	(pad "3" smd rect
		(at -2.200001 -2.920594)
		(size 0.2032 0.8382)
		(layers "F.Cu" "F.Paste" "F.Mask")
		(uuid "e26195d1-dd8d-44ba-b468-69c91158956d")
	)
	(pad "4" smd rect
		(at -1.799999 -2.920594)
		(size 0.2032 0.8382)
		(layers "F.Cu" "F.Paste" "F.Mask")
		(uuid "c6506bf6-cb1b-4a8b-8f15-f0bdf86bb78c")
	)
	(pad "5" smd rect
		(at -1.4 -2.920594)
		(size 0.2032 0.8382)
		(layers "F.Cu" "F.Paste" "F.Mask")
		(uuid "2248301f-d937-4c46-b835-afbe4df0f631")
	)
	(pad "6" smd rect
		(at -1.000001 -2.920594)
		(size 0.2032 0.8382)
		(layers "F.Cu" "F.Paste" "F.Mask")
		(uuid "7ecd7fe2-ec55-45a9-a075-57db11b232aa")
	)
	(pad "7" smd rect
		(at -0.599999 -2.920594)
		(size 0.2032 0.8382)
		(layers "F.Cu" "F.Paste" "F.Mask")
		(uuid "a8e0c76e-2102-4093-8381-5fafa7b856b3")
	)
	(pad "8" smd rect
		(at -0.2 -2.920594)
		(size 0.2032 0.8382)
		(layers "F.Cu" "F.Paste" "F.Mask")
		(uuid "1d66e4d2-805a-4544-860e-805165b1ca79")
	)
	(pad "9" smd rect
		(at 0.2 -2.920594)
		(size 0.2032 0.8382)
		(layers "F.Cu" "F.Paste" "F.Mask")
		(uuid "9906b363-2f01-4bcb-9110-7a7c4bed7638")
	)
	(pad "10" smd rect
		(at 0.599999 -2.920594)
		(size 0.2032 0.8382)
		(layers "F.Cu" "F.Paste" "F.Mask")
		(uuid "d6d9a355-04e1-4708-a392-2ae6eac1fad8")
	)
	(pad "11" smd rect
		(at 1.000001 -2.920594)
		(size 0.2032 0.8382)
		(layers "F.Cu" "F.Paste" "F.Mask")
		(uuid "0c8431dc-59c8-4d53-a36e-ab244fe7250e")
	)
	(pad "12" smd rect
		(at 1.4 -2.920594)
		(size 0.2032 0.8382)
		(layers "F.Cu" "F.Paste" "F.Mask")
		(uuid "85ec69a0-d65b-4bb7-95b6-93957678fbb6")
	)
	(pad "13" smd rect
		(at 1.799999 -2.920594)
		(size 0.2032 0.8382)
		(layers "F.Cu" "F.Paste" "F.Mask")
		(uuid "560752b2-9129-4255-9e3b-3d9757de07b9")
	)
	(pad "14" smd rect
		(at 2.200001 -2.920594)
		(size 0.2032 0.8382)
		(layers "F.Cu" "F.Paste" "F.Mask")
		(uuid "8d8d3818-52ac-43b3-804c-c3c4cf57a9a4")
	)
	(pad "15" smd rect
		(at 3.025 -2.920594)
		(size 0.2032 0.8382)
		(layers "F.Cu" "F.Paste" "F.Mask")
		(uuid "640c19d6-016a-40a7-bfb0-6e95d17851c9")
	)
	(pad "16" smd rect
		(at 3.634999 -2.920594)
		(size 0.5588 0.8382)
		(layers "F.Cu" "F.Paste" "F.Mask")
		(uuid "5928010f-c1bc-4249-84d3-8131233afb5a")
	)
	(pad "17" thru_hole circle
		(at -3.320001 -1.920594)
		(size 0.9652 0.9652)
		(drill 0.4572)
		(layers "*.Cu" "*.Mask")
		(remove_unused_layers no)
		(uuid "b6c6b81b-f8a7-4a65-99a7-fbb51118aa65")
	)
	(pad "18" thru_hole circle
		(at 3.319999 -1.920594)
		(size 0.9652 0.9652)
		(drill 0.4572)
		(layers "*.Cu" "*.Mask")
		(remove_unused_layers no)
		(uuid "1f5b945e-2358-44d7-be61-246260548ada")
	)
	(pad "19" smd rect
		(at -1.564999 0.898506)
		(size 1.7018 2.5908)
		(layers "F.Cu" "F.Paste" "F.Mask")
		(uuid "c0fcf929-84df-4282-8f56-00a9c3d3bae6")
	)
	(pad "20" smd rect
		(at 1.565001 0.898506)
		(size 1.7018 2.5908)
		(layers "F.Cu" "F.Paste" "F.Mask")
		(uuid "51e9eb2d-f7a3-4feb-99fb-4a4546d71c8a")
	)
	(pad "21" thru_hole oval
		(at -4.620001 -2.501494 90)
		(size 2.5146 1.1176)
		(drill 0.0254)
		(layers "*.Cu" "*.Mask")
		(remove_unused_layers no)
		(uuid "49178822-2a72-43cd-afc0-5134950786b1")
	)
	(pad "22" thru_hole oval
		(at 4.620001 -2.501494 90)
		(size 2.5146 1.1176)
		(drill 0.0254)
		(layers "*.Cu" "*.Mask")
		(remove_unused_layers no)
		(uuid "3bf8d7aa-6007-461d-b548-3511738a7e6b")
	)
	(pad "23" thru_hole oval
		(at -4.319999 1.054407 90)
		(size 2.2098 1.1176)
		(drill 0.0254)
		(layers "*.Cu" "*.Mask")
		(remove_unused_layers no)
		(uuid "ff1e37e4-b248-4652-abd1-f240e71fab72")
	)
	(pad "24" thru_hole oval
		(at 4.320001 1.054407 90)
		(size 2.2098 1.1176)
		(drill 0.0254)
		(layers "*.Cu" "*.Mask")
		(remove_unused_layers no)
		(uuid "fb2b7ce9-f539-4daa-83fd-2098bb287b1a")
	)
)