PCBNEW-LibModule-V1  2024-02-09 22:37:58
# encoding utf-8
Units mm
$INDEX
SODFL3517X110N
$EndINDEX
$MODULE SODFL3517X110N
Po 0 0 0 15 65c6a946 00000000 ~~
Li SODFL3517X110N
Cd PMEG6020AELRX
Kw Schottky Diode
Sc 0
At SMD
AR 
Op 0 0 0
T0 0 0 1.27 1.27 0 0.254 N V 21 N "D**"
T1 0 0 1.27 1.27 0 0.254 N I 21 N "SODFL3517X110N"
DS -2.21 -1.1 2.21 -1.1 0.05 24
DS 2.21 -1.1 2.21 1.1 0.05 24
DS 2.21 1.1 -2.21 1.1 0.05 24
DS -2.21 1.1 -2.21 -1.1 0.05 24
DS -1.3 -0.85 1.3 -0.85 0.1 24
DS 1.3 -0.85 1.3 0.85 0.1 24
DS 1.3 0.85 -1.3 0.85 0.1 24
DS -1.3 0.85 -1.3 -0.85 0.1 24
DS -1.3 -0.39 -0.84 -0.85 0.1 24
DS -2.06 -0.85 1.3 -0.85 0.2 21
DS -1.3 0.85 1.3 0.85 0.2 21
$PAD
Po -1.6 0
Sh "1" R 0.92 1.08 0 0 0
At SMD N 00888000
Ne 0 ""
$EndPAD
$PAD
Po 1.6 0
Sh "2" R 0.92 1.08 0 0 0
At SMD N 00888000
Ne 0 ""
$EndPAD
$EndMODULE SODFL3517X110N
$EndLIBRARY
