PCBNEW-LibModule-V1  2024-02-09 22:12:32
# encoding utf-8
Units mm
$INDEX
SON50P300X400X100-13N-D
$EndINDEX
$MODULE SON50P300X400X100-13N-D
Po 0 0 0 15 65c6a350 00000000 ~~
Li SON50P300X400X100-13N-D
Cd 12 LD 4x3 DFN
Kw Integrated Circuit
Sc 0
At SMD
AR 
Op 0 0 0
T0 0 0 1.27 1.27 0 0.254 N V 21 N "IC**"
T1 0 0 1.27 1.27 0 0.254 N I 21 N "SON50P300X400X100-13N-D"
DS -2.125 -2.25 2.125 -2.25 0.05 24
DS 2.125 -2.25 2.125 2.25 0.05 24
DS 2.125 2.25 -2.125 2.25 0.05 24
DS -2.125 2.25 -2.125 -2.25 0.05 24
DS -1.5 -2 1.5 -2 0.1 24
DS 1.5 -2 1.5 2 0.1 24
DS 1.5 2 -1.5 2 0.1 24
DS -1.5 2 -1.5 -2 0.1 24
DS -1.5 -1.25 -0.75 -2 0.1 24
DC -1.9 -1.9 -1.775 -1.9 0.254 21
$PAD
Po -1.5 -1.25
Sh "1" R 0.3 0.8 0 0 900
At SMD N 00888000
Ne 0 ""
$EndPAD
$PAD
Po -1.5 -0.75
Sh "2" R 0.3 0.8 0 0 900
At SMD N 00888000
Ne 0 ""
$EndPAD
$PAD
Po -1.5 -0.25
Sh "3" R 0.3 0.8 0 0 900
At SMD N 00888000
Ne 0 ""
$EndPAD
$PAD
Po -1.5 0.25
Sh "4" R 0.3 0.8 0 0 900
At SMD N 00888000
Ne 0 ""
$EndPAD
$PAD
Po -1.5 0.75
Sh "5" R 0.3 0.8 0 0 900
At SMD N 00888000
Ne 0 ""
$EndPAD
$PAD
Po -1.5 1.25
Sh "6" R 0.3 0.8 0 0 900
At SMD N 00888000
Ne 0 ""
$EndPAD
$PAD
Po 1.5 1.25
Sh "7" R 0.3 0.8 0 0 900
At SMD N 00888000
Ne 0 ""
$EndPAD
$PAD
Po 1.5 0.75
Sh "8" R 0.3 0.8 0 0 900
At SMD N 00888000
Ne 0 ""
$EndPAD
$PAD
Po 1.5 0.25
Sh "9" R 0.3 0.8 0 0 900
At SMD N 00888000
Ne 0 ""
$EndPAD
$PAD
Po 1.5 -0.25
Sh "10" R 0.3 0.8 0 0 900
At SMD N 00888000
Ne 0 ""
$EndPAD
$PAD
Po 1.5 -0.75
Sh "11" R 0.3 0.8 0 0 900
At SMD N 00888000
Ne 0 ""
$EndPAD
$PAD
Po 1.5 -1.25
Sh "12" R 0.3 0.8 0 0 900
At SMD N 00888000
Ne 0 ""
$EndPAD
$PAD
Po 0 0
Sh "13" R 1.8 3.4 0 0 0
At SMD N 00888000
Ne 0 ""
$EndPAD
$EndMODULE SON50P300X400X100-13N-D
$EndLIBRARY
