PCBNEW-LibModule-V1  2024-02-11 23:10:46
# encoding utf-8
Units mm
$INDEX
SRR3818A1R0Y
$EndINDEX
$MODULE SRR3818A1R0Y
Po 0 0 0 15 65c953f6 00000000 ~~
Li SRR3818A1R0Y
Cd SRR3818A-1R0Y-2
Kw Inductor
Sc 0
At SMD
AR 
Op 0 0 0
T0 0.000 -0 1.27 1.27 0 0.254 N V 21 N "L**"
T1 0.000 -0 1.27 1.27 0 0.254 N I 21 N "SRR3818A1R0Y"
DS -1.9 -1.9 1.9 -1.9 0.2 24
DS 1.9 -1.9 1.9 1.9 0.2 24
DS 1.9 1.9 -1.9 1.9 0.2 24
DS -1.9 1.9 -1.9 -1.9 0.2 24
DS -3.15 -3.15 3.15 -3.15 0.1 24
DS 3.15 -3.15 3.15 3.15 0.1 24
DS 3.15 3.15 -3.15 3.15 0.1 24
DS -3.15 3.15 -3.15 -3.15 0.1 24
DS 1.9 -0.2 1.9 0.1 0.1 21
DS -1.9 -0.2 -1.9 0.1 0.1 21
$PAD
Po 0.000 -1.35
Sh "1" R 1.600 4.300 0 0 900
At SMD N 00888000
Ne 0 ""
$EndPAD
$PAD
Po 0.000 1.35
Sh "2" R 1.600 4.300 0 0 900
At SMD N 00888000
Ne 0 ""
$EndPAD
$EndMODULE SRR3818A1R0Y
$EndLIBRARY
