PCBNEW-LibModule-V1  2024-04-05 10:03:58
# encoding utf-8
Units mm
$INDEX
QFN50P300X300X60-17N-D
$EndINDEX
$MODULE QFN50P300X300X60-17N-D
Po 0 0 0 15 660fbe7e 00000000 ~~
Li QFN50P300X300X60-17N-D
Cd QFN16(H=0.6mm)
Kw Integrated Circuit
Sc 0
At SMD
AR 
Op 0 0 0
T0 0 0 1.27 1.27 0 0.254 N V 21 N "IC**"
T1 0 0 1.27 1.27 0 0.254 N I 21 N "QFN50P300X300X60-17N-D"
DS -2.125 -2.125 2.125 -2.125 0.05 24
DS 2.125 -2.125 2.125 2.125 0.05 24
DS 2.125 2.125 -2.125 2.125 0.05 24
DS -2.125 2.125 -2.125 -2.125 0.05 24
DS -1.5 -1.5 1.5 -1.5 0.1 24
DS 1.5 -1.5 1.5 1.5 0.1 24
DS 1.5 1.5 -1.5 1.5 0.1 24
DS -1.5 1.5 -1.5 -1.5 0.1 24
DS -1.5 -1 -1 -1.5 0.1 24
DC -1.9 -1.5 -1.775 -1.5 0.254 21
$PAD
Po -1.5 -0.75
Sh "1" R 0.3 0.8 0 0 900
At SMD N 00888000
Ne 0 ""
$EndPAD
$PAD
Po -1.5 -0.25
Sh "2" R 0.3 0.8 0 0 900
At SMD N 00888000
Ne 0 ""
$EndPAD
$PAD
Po -1.5 0.25
Sh "3" R 0.3 0.8 0 0 900
At SMD N 00888000
Ne 0 ""
$EndPAD
$PAD
Po -1.5 0.75
Sh "4" R 0.3 0.8 0 0 900
At SMD N 00888000
Ne 0 ""
$EndPAD
$PAD
Po -0.75 1.5
Sh "5" R 0.3 0.8 0 0 0
At SMD N 00888000
Ne 0 ""
$EndPAD
$PAD
Po -0.25 1.5
Sh "6" R 0.3 0.8 0 0 0
At SMD N 00888000
Ne 0 ""
$EndPAD
$PAD
Po 0.25 1.5
Sh "7" R 0.3 0.8 0 0 0
At SMD N 00888000
Ne 0 ""
$EndPAD
$PAD
Po 0.75 1.5
Sh "8" R 0.3 0.8 0 0 0
At SMD N 00888000
Ne 0 ""
$EndPAD
$PAD
Po 1.5 0.75
Sh "9" R 0.3 0.8 0 0 900
At SMD N 00888000
Ne 0 ""
$EndPAD
$PAD
Po 1.5 0.25
Sh "10" R 0.3 0.8 0 0 900
At SMD N 00888000
Ne 0 ""
$EndPAD
$PAD
Po 1.5 -0.25
Sh "11" R 0.3 0.8 0 0 900
At SMD N 00888000
Ne 0 ""
$EndPAD
$PAD
Po 1.5 -0.75
Sh "12" R 0.3 0.8 0 0 900
At SMD N 00888000
Ne 0 ""
$EndPAD
$PAD
Po 0.75 -1.5
Sh "13" R 0.3 0.8 0 0 0
At SMD N 00888000
Ne 0 ""
$EndPAD
$PAD
Po 0.25 -1.5
Sh "14" R 0.3 0.8 0 0 0
At SMD N 00888000
Ne 0 ""
$EndPAD
$PAD
Po -0.25 -1.5
Sh "15" R 0.3 0.8 0 0 0
At SMD N 00888000
Ne 0 ""
$EndPAD
$PAD
Po -0.75 -1.5
Sh "16" R 0.3 0.8 0 0 0
At SMD N 00888000
Ne 0 ""
$EndPAD
$PAD
Po 0 0
Sh "17" R 1.75 1.75 0 0 0
At SMD N 00888000
Ne 0 ""
$EndPAD
$EndMODULE QFN50P300X300X60-17N-D
$EndLIBRARY
