(kicad_symbol_lib (version 20211014) (generator kicad_symbol_editor)
  (symbol "XC6501A181MR-G" (pin_names (offset 0.254)) (in_bom yes) (on_board yes)
    (property "Reference" "U" (id 0) (at 20.32 10.16 0)
      (effects (font (size 1.524 1.524)))
    )
    (property "Value" "XC6501A181MR-G" (id 1) (at 20.32 7.62 0)
      (effects (font (size 1.524 1.524)))
    )
    (property "Footprint" "SOT-25_TOR" (id 2) (at 0 0 0)
      (effects (font (size 1.27 1.27) italic) hide)
    )
    (property "Datasheet" "XC6501A181MR-G" (id 3) (at 0 0 0)
      (effects (font (size 1.27 1.27) italic) hide)
    )
    (property "ki_keywords" "XC6501A181MR-G" (id 4) (at 0 0 0)
      (effects (font (size 1.27 1.27)) hide)
    )
    (property "ki_locked" "" (id 5) (at 0 0 0)
      (effects (font (size 1.27 1.27)) hide)
    )
    (property "ki_fp_filters" "SOT-25_TOR SOT-25_TOR-M SOT-25_TOR-L" (id 6) (at 0 0 0)
      (effects (font (size 1.27 1.27)) hide)
    )
    (symbol "XC6501A181MR-G_0_1"
      (polyline
        (pts
          (xy 7.62 5.08)
          (xy 7.62 -15.24)
        )
        (stroke (width 0.127) (type default) (color 0 0 0 0))
        (fill (type none))
      )
      (polyline
        (pts
          (xy 7.62 -15.24)
          (xy 33.02 -15.24)
        )
        (stroke (width 0.127) (type default) (color 0 0 0 0))
        (fill (type none))
      )
      (polyline
        (pts
          (xy 33.02 -15.24)
          (xy 33.02 5.08)
        )
        (stroke (width 0.127) (type default) (color 0 0 0 0))
        (fill (type none))
      )
      (polyline
        (pts
          (xy 33.02 5.08)
          (xy 7.62 5.08)
        )
        (stroke (width 0.127) (type default) (color 0 0 0 0))
        (fill (type none))
      )
      (pin power_in line (at 0 0 0) (length 7.62)
        (name "VIN" (effects (font (size 1.27 1.27))))
        (number "1" (effects (font (size 1.27 1.27))))
      )
      (pin power_out line (at 20.32 -22.86 90) (length 7.62)
        (name "VSS" (effects (font (size 1.27 1.27))))
        (number "2" (effects (font (size 1.27 1.27))))
      )
      (pin unspecified line (at 0 -7.62 0) (length 7.62)
        (name "CE" (effects (font (size 1.27 1.27))))
        (number "3" (effects (font (size 1.27 1.27))))
      )
      (pin no_connect line (at 40.64 -2.54 180) (length 7.62)
        (name "NC" (effects (font (size 1.27 1.27))))
        (number "4" (effects (font (size 1.27 1.27))))
      )
      (pin output line (at 40.64 0 180) (length 7.62)
        (name "VOUT" (effects (font (size 1.27 1.27))))
        (number "5" (effects (font (size 1.27 1.27))))
      )
    )
  )
)

