<?xml version="1.0" encoding="utf-8"?>
<!--/885457/1304982/2.50/2/4/Inductor/-->
<!DOCTYPE curve SYSTEM "eagle.dtd">
<eagle version="7.7.0">
<drawing>
<settings>
<setting alwaysvectorfont="no"/>
<setting verticaltext="up"/>
</settings>
<grid distance="0.1" unitdist="inch" unit="inch" style="lines" multiple="1" display="no" altdistance="0.01" altunitdist="inch" altunit="inch"/>
<layers>
<layer number="1" name="Top" color="4" fill="1" visible="yes" active="yes"/>
<layer number="16" name="Bottom" color="1" fill="1" visible="yes" active="yes"/>
<layer number="17" name="Pads" color="2" fill="1" visible="yes" active="yes"/>
<layer number="18" name="Vias" color="2" fill="1" visible="yes" active="yes"/>
<layer number="19" name="Unrouted" color="6" fill="1" visible="yes" active="yes"/>
<layer number="20" name="Dimension" color="15" fill="1" visible="yes" active="yes"/>
<layer number="21" name="tPlace" color="7" fill="1" visible="yes" active="yes"/>
<layer number="22" name="bPlace" color="7" fill="1" visible="yes" active="yes"/>
<layer number="23" name="tOrigins" color="15" fill="1" visible="yes" active="yes"/>
<layer number="24" name="bOrigins" color="15" fill="1" visible="yes" active="yes"/>
<layer number="25" name="tNames" color="7" fill="1" visible="yes" active="yes"/>
<layer number="26" name="bNames" color="7" fill="1" visible="yes" active="yes"/>
<layer number="27" name="tValues" color="7" fill="1" visible="yes" active="yes"/>
<layer number="28" name="bValues" color="7" fill="1" visible="yes" active="yes"/>
<layer number="29" name="tStop" color="7" fill="3" visible="no" active="yes"/>
<layer number="30" name="bStop" color="7" fill="6" visible="no" active="yes"/>
<layer number="31" name="tCream" color="7" fill="4" visible="no" active="yes"/>
<layer number="32" name="bCream" color="7" fill="5" visible="no" active="yes"/>
<layer number="33" name="tFinish" color="6" fill="3" visible="no" active="yes"/>
<layer number="34" name="bFinish" color="6" fill="6" visible="no" active="yes"/>
<layer number="35" name="tGlue" color="7" fill="4" visible="no" active="yes"/>
<layer number="36" name="bGlue" color="7" fill="5" visible="no" active="yes"/>
<layer number="37" name="tTest" color="7" fill="1" visible="no" active="yes"/>
<layer number="38" name="bTest" color="7" fill="1" visible="no" active="yes"/>
<layer number="39" name="tKeepout" color="4" fill="11" visible="yes" active="yes"/>
<layer number="40" name="bKeepout" color="1" fill="11" visible="yes" active="yes"/>
<layer number="41" name="tRestrict" color="4" fill="10" visible="yes" active="yes"/>
<layer number="42" name="bRestrict" color="1" fill="10" visible="yes" active="yes"/>
<layer number="43" name="vRestrict" color="2" fill="10" visible="yes" active="yes"/>
<layer number="44" name="Drills" color="7" fill="1" visible="no" active="yes"/>
<layer number="45" name="Holes" color="7" fill="1" visible="no" active="yes"/>
<layer number="46" name="Milling" color="3" fill="1" visible="no" active="yes"/>
<layer number="47" name="Measures" color="7" fill="1" visible="no" active="yes"/>
<layer number="48" name="Document" color="7" fill="1" visible="yes" active="yes"/>
<layer number="49" name="Reference" color="7" fill="1" visible="yes" active="yes"/>
<layer number="51" name="tDocu" color="7" fill="1" visible="yes" active="yes"/>
<layer number="52" name="bDocu" color="7" fill="1" visible="yes" active="yes"/>
<layer number="90" name="Modules" color="5" fill="1" visible="yes" active="yes"/>
<layer number="91" name="Nets" color="2" fill="1" visible="yes" active="yes"/>
<layer number="92" name="Busses" color="1" fill="1" visible="yes" active="yes"/>
<layer number="93" name="Pins" color="2" fill="1" visible="no" active="yes"/>
<layer number="94" name="Symbols" color="4" fill="1" visible="yes" active="yes"/>
<layer number="95" name="Names" color="7" fill="1" visible="yes" active="yes"/>
<layer number="96" name="Values" color="7" fill="1" visible="yes" active="yes"/>
<layer number="97" name="Info" color="7" fill="1" visible="yes" active="yes"/>
<layer number="98" name="Guide" color="6" fill="1" visible="yes" active="yes"/>
</layers>
<library>
<description>&lt;Fixed Inductors 1.3A 10uH 20% SMD 3818 AEC-Q200&lt;/b&gt;&lt;p&gt;
&lt;author&gt;Created by SamacSys&lt;/author&gt;</description>
<packages>
<package name="SRR3818A1R0Y">
<description>&lt;b&gt;SRR3818A-1R0Y-2&lt;/b&gt;&lt;br&gt;
</description>
<smd name="1" x="0.000" y="1.350" dx="4.300" dy="1.600" layer="1" rot="R0"/>
<smd name="2" x="0.000" y="-1.350" dx="4.300" dy="1.600" layer="1" rot="R0"/>
<text x="0.000" y="0.000" align="center" size="1.27" layer="25" rot="R0" >&gt;NAME</text>
<text x="0.000" y="0.000" align="center" size="1.27" layer="27" rot="R0" >&gt;VALUE</text>
<wire x1="-1.9" y1="1.9" x2="1.9" y2="1.9" width="0.2" layer="51"/>
<wire x1="1.9" y1="1.9" x2="1.9" y2="-1.9" width="0.2" layer="51"/>
<wire x1="1.9" y1="-1.9" x2="-1.9" y2="-1.9" width="0.2" layer="51"/>
<wire x1="-1.9" y1="-1.9" x2="-1.9" y2="1.9" width="0.2" layer="51"/>
<wire x1="-3.15" y1="3.15" x2="3.15" y2="3.15" width="0.1" layer="51"/>
<wire x1="3.15" y1="3.15" x2="3.15" y2="-3.15" width="0.1" layer="51"/>
<wire x1="3.15" y1="-3.15" x2="-3.15" y2="-3.15" width="0.1" layer="51"/>
<wire x1="-3.15" y1="-3.15" x2="-3.15" y2="3.15" width="0.1" layer="51"/>
<wire x1="1.9" y1="0.2" x2="1.9" y2="-0.1" width="0.1" layer="21"/>
<wire x1="-1.9" y1="0.2" x2="-1.9" y2="-0.1" width="0.1" layer="21"/>
</package>
</packages>
<symbols>
<symbol name="SRR3818A-100M">
<wire x1="5.08" y1="0" x2="7.62" y2="0" width="0.254" layer="94" curve="-175.4"/>
<wire x1="7.62" y1="0" x2="10.16" y2="0" width="0.254" layer="94" curve="-175.4"/>
<wire x1="10.16" y1="0" x2="12.7" y2="0" width="0.254" layer="94" curve="-175.4"/>
<wire x1="12.7" y1="0" x2="15.24" y2="0" width="0.254" layer="94" curve="-175.4"/>
<text x="16.51" y="6.35" align="center-left" size="1.778" layer="95">&gt;NAME</text>
<text x="16.51" y="3.81" align="center-left" size="1.778" layer="96">&gt;VALUE</text>
<pin name="1" x="0" y="0" visible="pad" length="middle" direction="io" rot="R0"/>
<pin name="2" x="20.32" y="0" visible="pad" length="middle" direction="io" rot="R180"/>
</symbol>
</symbols>
<devicesets>
<deviceset name="SRR3818A-100M" prefix="L">
<description>&lt;b&gt;Fixed Inductors 1.3A 10uH 20% SMD 3818 AEC-Q200&lt;/b&gt;&lt;p&gt;
Source: &lt;a href="https://componentsearchengine.com/Datasheets/2/SRR3818A-1R0Y.pdf"&gt; Datasheet &lt;/a&gt;</description>
<gates>
<gate name="G$1" symbol="SRR3818A-100M" x="0" y="0"/>
</gates>
<devices>
<device name="" package="SRR3818A1R0Y">
<connects>
<connect gate="G$1" pin="1" pad="1"/>
<connect gate="G$1" pin="2" pad="2"/>
</connects>
<technologies>
<technology name="">
<attribute name="Manufacturer_Name" value="Bourns" constant="no"/>
<attribute name="Manufacturer_Part_Number" value="SRR3818A-100M" constant="no"/>
<attribute name="Mouser_Part_Number" value="652-SRR3818A-100M" constant="no"/>
<attribute name="Mouser_Price-Stock" value="https://www.mouser.com/Search/Refine.aspx?Keyword=652-SRR3818A-100M" constant="no"/>
<attribute name="Arrow_Part_Number" value="SRR3818A-100M" constant="no"/>
<attribute name="Arrow_Price-Stock" value="https://www.arrow.com/en/products/srr3818a-100m/bourns" constant="no"/>
<attribute name="Description" value="Fixed Inductors 1.3A 10uH 20% SMD 3818 AEC-Q200" constant="no"/>
<attribute name="Height" value="2mm" constant="no"/>
</technology>
</technologies>
</device>
</devices>
</deviceset>
</devicesets>
</library>
</drawing>
</eagle>
