PCBNEW-LibModule-V1  2024-01-23 11:46:40
# encoding utf-8
Units mm
$INDEX
15716363
$EndINDEX
$MODULE 15716363
Po 0 0 0 15 65afa720 00000000 ~~
Li 15716363
Cd 1571636-3-1
Kw Switch
Sc 0
At SMD
AR 
Op 0 0 0
T0 -0.400 -0 1.27 1.27 0 0.254 N V 21 N "S**"
T1 -0.400 -0 1.27 1.27 0 0.254 N I 21 N "15716363"
DS -3.1 3.1 3.1 3.1 0.2 24
DS 3.1 3.1 3.1 -3.1 0.2 24
DS 3.1 -3.1 -3.1 -3.1 0.2 24
DS -3.1 -3.1 -3.1 3.1 0.2 24
DS -2.75 -3.1 3 -3.1 0.1 21
DS 3 -3.1 3 -3.1 0.1 21
DS 3 -3.1 -2.75 -3.1 0.1 21
DS -2.75 -3.1 -2.75 -3.1 0.1 21
DS -3 3.1 2.75 3.1 0.1 21
DS 2.75 3.1 2.75 3.1 0.1 21
DS 2.75 3.1 -3 3.1 0.1 21
DS -3 3.1 -3 3.1 0.1 21
DS -6.7 -4.1 5.9 -4.1 0.1 24
DS 5.9 -4.1 5.9 4.1 0.1 24
DS 5.9 4.1 -6.7 4.1 0.1 24
DS -6.7 4.1 -6.7 -4.1 0.1 24
DS -5.7 -2.25 -5.7 -2.25 0.2 21
DS -5.6 -2.25 -5.6 -2.25 0.2 21
DS -5.7 -2.25 -5.7 -2.25 0.2 21
DA -5.65 -2.25 -5.700 -2.25 -1800 0.2 21
DA -5.65 -2.25 -5.600 -2.25 -1800 0.2 21
DA -5.65 -2.25 -5.700 -2.25 -1800 0.2 21
$PAD
Po -4.200 -2.25
Sh "1" R 1.400 1.600 0 0 0
At SMD N 00888000
Ne 0 ""
$EndPAD
$PAD
Po 4.200 -2.25
Sh "2" R 1.400 1.600 0 0 0
At SMD N 00888000
Ne 0 ""
$EndPAD
$PAD
Po -4.200 2.25
Sh "3" R 1.400 1.600 0 0 0
At SMD N 00888000
Ne 0 ""
$EndPAD
$PAD
Po 4.200 2.25
Sh "4" R 1.400 1.600 0 0 0
At SMD N 00888000
Ne 0 ""
$EndPAD
$PAD
Po 4.200 -0
Sh "5" R 1.400 1.600 0 0 0
At SMD N 00888000
Ne 0 ""
$EndPAD
$EndMODULE 15716363
$EndLIBRARY
