﻿Designator,Mid X,Mid Y,Rotation,Layer
BZ1,77.7,-101.5,180.0,top
C1,84.25,-84.9425,0.0,top
C10,84.1,-63.45,90.0,top
C11,86.2425,-63.43,270.0,top
C12,80.3,-70.15,180.0,top
C13,80.3,-69.15,180.0,top
C14,73.0,-69.9,180.0,top
C15,75.9,-62.85,270.0,top
C16,77.9,-62.85,270.0,top
C17,73.9,-62.85,270.0,top
C18,71.8425,-62.83,270.0,top
C19,52.65,-87.77,90.0,top
C2,84.25,-85.9425,0.0,top
C20,54.65,-87.75,90.0,top
C21,53.65,-87.75,90.0,top
C22,62.15,-79.62,90.0,top
C23,60.15,-79.6325,90.0,top
C24,58.992696,-77.67,90.0,top
C25,57.992696,-77.67,90.0,top
C26,56.992696,-77.6625,90.0,top
C27,55.962696,-77.6625,270.0,top
C28,51.95,-73.2,0.0,top
C29,51.95,-74.2,0.0,top
C3,84.825,-87.1425,0.0,top
C30,54.27,-71.0125,90.0,top
C31,55.27,-71.0125,90.0,top
C32,56.27,-71.0125,90.0,top
C33,57.27,-71.0125,270.0,top
C34,58.27,-71.0125,90.0,top
C35,55.64,-89.1825,180.0,top
C36,55.64,-93.1825,180.0,top
C37,55.64,-92.1025,180.0,top
C38,55.055,-90.6825,180.0,top
C39,65.88,-100.0325,270.0,top
C4,66.827,-84.4425,0.0,top
C40,64.88,-100.0125,90.0,top
C41,63.88,-100.0125,90.0,top
C42,69.050002,-99.5325,0.0,top
C5,67.377,-83.0425,180.0,top
C6,72.655,-93.3025,180.0,top
C7,78.3225,-76.4,0.0,top
C8,73.8,-76.95,90.0,top
C9,88.5,-69.75,180.0,top
D1,81.05,-72.3,90.0,top
D2,82.65,-72.3,90.0,top
D3,88.5125,-72.35,90.0,top
D4,81.6,-62.85,90.0,top
D5,88.0125,-77.2,0.0,top
FL1,76.5525,-76.4175,90.0,top
FL2,75.0525,-76.4175,90.0,top
IC1,75.658,-85.4425,0.0,top
IC2,76.7,-68.9,180.0,top
IC3,54.895,-82.2375,90.0,top
IC4,56.25,-74.4125,90.0,top
J1,95.8922,-73.873901,90.0,top
J2,88.245,-90.6925,90.0,top
J3,88.75,-52.975,270.0,top
J4,79.46,-54.25,0.0,top
J5,55.9,-62.1,90.0,top
L1,90.5,-61.75,180.0,top
L2,53.892696,-77.6575,90.0,top
L3,54.942696,-77.6575,90.0,top
L4,52.872696,-77.6575,90.0,top
L5,57.77,-68.2275,90.0,top
L6,54.72,-68.2425,90.0,top
LED1,86.9742,-80.225,0.0,top
Q4,71.23,-54.11,180.0,top
R1,67.45,-89.0925,180.0,top
R10,79.75,-75.85,270.0,top
R11,80.75,-75.85,270.0,top
R12,89.2625,-74.5,180.0,top
R13,89.2625,-75.55,180.0,top
R14,70.42,-76.9425,270.0,top
R15,70.25,-69.0,90.0,top
R16,77.55,-72.76,90.0,top
R17,76.55,-72.76,90.0,top
R18,73.0,-67.9,0.0,top
R19,73.0,-68.9,0.0,top
R2,67.46,-90.0925,0.0,top
R20,70.2925,-63.58,90.0,top
R21,84.55,-81.1025,180.0,top
R22,89.39,-81.0525,0.0,top
R23,89.39,-80.0525,0.0,top
R24,89.4,-82.05,0.0,top
R25,84.54,-80.1025,180.0,top
R26,64.8085,-92.3025,180.0,top
R27,72.5,-95.5,90.0,top
R28,70.75,-57.5,90.0,top
R29,69.75,-57.52,270.0,top
R3,67.46,-88.0925,0.0,top
R30,68.75,-57.52,270.0,top
R31,89.27,-67.25,180.0,top
R32,89.29,-66.0,0.0,top
R33,61.15,-79.62,90.0,top
R34,51.65,-87.77,90.0,top
R35,59.7,-73.3625,180.0,top
R36,59.7,-74.4125,0.0,top
R37,59.7,-75.4625,0.0,top
R38,63.37,-89.7525,180.0,top
R39,63.37,-88.6825,180.0,top
R4,82.75,-75.84,90.0,top
R40,66.63,-92.0125,90.0,top
R41,62.63,-92.0125,270.0,top
R42,60.348,-94.711,180.0,top
R43,60.368,-98.711,0.0,top
R44,89.4,-79.0,0.0,top
R45,60.13,-96.711,90.0,top
R5,81.75,-75.84,270.0,top
R6,76.02,-93.8425,270.0,top
R7,77.02,-93.8325,270.0,top
R8,78.3025,-75.38,180.0,top
R9,89.25,-68.25,180.0,top
SW1,97.3,-63.05,90.0,top
SW3,65.150001,-71.350001,270.0,top
U1,59.29,-90.5575,0.0,top
U2,64.66,-96.6825,0.0,top
U3,69.580001,-96.218751,90.0,top
Y1,61.15,-84.2,180.0,top
